{
  "variants": {
    "facing=south": {"model": "kwaicoloncyy:block/character_board_4"},
    "facing=west": {"model": "kwaicoloncyy:block/character_board_4", "y": 90},
    "facing=north": {"model": "kwaicoloncyy:block/character_board_4", "y": 180},
    "facing=east": {"model": "kwaicoloncyy:block/character_board_4", "y": 270}
  }
}
