{
  "type": "crafting_shaped",
  "category": "misc",
  "key": {
    "P": [
      {"item": "minecraft:oak_planks"},
      {"item": "minecraft:spruce_planks"},
      {"item": "minecraft:birch_planks"},
      {"item": "minecraft:jungle_planks"},
      {"item": "minecraft:acacia_planks"},
      {"item": "minecraft:dark_oak_planks"}
    ],
    "D": {"item": "minecraft:diamond"}
  },
  "pattern": [
    "P P",
    " D ",
    "P P"
  ],
  "result": {"item": "kwaicoloncyy:character_board_4"},
  "show_notification": false
}
